Service Charge,Cash paying rate,Insurance rate
serum prolactin,3500,3500
Retic Count,1800,1800
HEPATITI B Vaccination,400,400
IMMUNOHISTOCHEMISTRY @MAKER,5300,5300
serum Igf-i,2700,2700
VIT B12 Levels + Folate Levels,6800,6800
Tube Chest Insertion,10000,10000
Sedation Fee,5000,5000
Antinuclear Antibodies,2000,2000
Procedure,5000,5000
Minor operations under LA,2000,2000
NGT tube insertion,1500,1500
Bladder catheterization,5000,5000
gowns sterile,438,438
Insertion of IV line/peripheral venous access,2500,2500
Drawing of blood for blood gas analysis,2000,2000
CVP catheterization,1000,1000
universal drappers,2900,2900
Trach tube insertion,3000,3000
X-ray guided pain procedures-lumbar spine,10000,10000
X-ray guided pain procedures-cervical spine,15000,15000
Epidurals: initial insertion or single shot,5000,5000
Epidurals: top-ups by anesthetist (per episode),4000,4000
Initiation of ventilation,4000,4000
Ventilation,5000,5000
Daily ventilator management,4000,4000
Resuscitation,8000,8000
Resuscitation,15000,15000
Minimum charge or within first half hour (Group A: ASA I and ASA II),10000,10000
Second half hour + (Group A: ASA I and ASA II),10000,10000
Second and third hours (per hour) (Group A: ASA I and ASA II),12000,12000
Fourth and subsequent hours (per hour) (Group A: ASA I and ASA II),15000,15000
"Minimum charge (Group B: ASA III, IV, V, infants and emergencies)",14000,14000
"First half hour + (Group B: ASA III, IV, V, infants and emergencies)",14000,14000
"Second half hour (Group B: ASA III, IV, V, infants and emergencies)",15000,15000
Nasal Packing(Procedure),10000,10000
"Second and subsequent hours (per hour) (Group B: ASA III, IV, V, infants and emergencies)",20000,20000
Minimum charge or within first half hour (Group C: High risk and/or specialized surgery),20000,20000
Second half hour (Group C: High risk and/or specialized surgery),20000,20000
Second and third hours (per hour) (Group C: High risk and/or specialized surgery),25000,25000
Fourth and subsequent hours (per hour) (Group C: High risk and/or specialized surgery),30000,30000
CATHETER,5000,5000
Suction,250,250
Catheterisation Removal,1000,1000
Catheter,5000,5000
Oral Care,500,500
Pressure Area Care(2 Hourly),300,300
Transfer By Consultant(Internal),10000,10000
Transfer By Consultant(external),10000,10000
NG Feeding(per session),150,150
Wound Care/Change of Dressing,150,150
Tracheostomy Care,150,150
Nebulization TP's,1000,1000
Intubation,10000,10000
Peripheral Line Insertion,2500,2500
Artequick,550,550
Blood Gas Sampling,2000,2000
Daily Reviews,6000,6000
Surfactant Administration,10000,10000
External Pacing,10000,10000
Bronchoscopy,10000,10000
Transfer fees: Intra-hospital (from one unit to another) per hour,10000,10000
Transfer fees: Inter-hospital (same town) per hour,10000,10000
Transfer fees: Inter-hospital (different town) per hour,10000,10000
"Transfer fees: Inter-hospital (international) per hour excluding air fare, accommodation and travel insurance",10000,10000
Electrocardiogram,2000,2000
ECG-Cardiac monitor,3500,3500
ECHO,3000,3000
Calcium ions,1000,1000
Emergency cardiac resuscitation,15000,15000
24 hour ambulatory BP,15000,15000
ICD/CRTD check,10000,10000
Pulmonary function tests,8000,8000
Coronary FFR/IVU,30000,30000
Loop recorder implantation,30000,30000
ICD implantation,200000,200000
CRTD implantation,200000,200000
IVC filter,30000,30000
CVP insertion,10000,10000
Intra-aortic balloon pump insertion,40000,40000
Cvc placement,2000,2000
baloon catheter,7500,7500
12-lead ECG,60,60
24 hour Holter,10000,10000
2D echocardiogram,8000,8000
Echocardiogram - portable,15000,15000
Transesophageal echo,15000,15000
Pericardiocentesis,20000,20000
Exercise stress test,12000,12000
Right heart catheterization including measurement of oxygen saturation pulmonary pressures and cardiac output,25000,25000
Left forearm abcess,8000,8000
Diagnostic right and left heart catheterization,60000,60000
"Catheter placement and coronary angiography, imaging supervision and interpretation",40000,40000
"Coronary angiography with catheter placement(s) in bypass graft(s) (internal mammary, arterial, venous graft) including intraprocedural injections for bypass graft angiography",60000,60000
Coronary angiography with right heart catheterization,70000,70000
Coronary angiography with bypass graft angiography and right heart catheterization,80000,80000
Transseptal puncture,25000,25000
"Injection right ventricle or right atrial angiography, imaging and supervision",25000,25000
Injection supravalvular aortography imaging supervision and interpretation,15000,15000
"Injection for pulmonary angiography, imaging supervision and interpretation",25000,25000
"Insertion of arterial closure device (eg angioseal, starclose, perclose)",2500,2500
"Percutaneous transluminal coronary angioplasty, single vessel",100000,100000
"Percutaneous transluminal coronary angioplasty, each additional vessel",50000,50000
"Transcatheter placement of intracoronary stent, percutaneous, initial vessel",120000,120000
"Transcatheter placement of intracoronary stent, each additional vessel",60000,60000
Aspiration thrombectomy of intracoronary thrombus,25000,25000
"Intracoronary physiology studies, fractional flow reserve",25000,25000
"Intracoronary ultrasound studies, IVUS",25000,25000
Pacemakers - Permanent single chamber insertion,70000,70000
Pacemakers - Permanent dual chamber insertion,100000,100000
Insertion of implantable cardiac defibrillator (ICD),150000,150000
Insertion of biventricular cardiac resynchronization device,250000,250000
Defibrillation threshold testing during or after implantation of ICD device,25000,25000
Insertion of temporary transvenous pacemaker,30000,30000
"Programming of atrio-ventricular sequential pacemaker or single chamber pacemaker (eg DDD, VVI)",7500,7500
Programming of ICD,10000,10000
Renewal of pacemaker generator (battery change),35000,35000
Insertion of implantable loop recorder,30000,30000
Synchronized DC cardioversion for unstable tachyarrhythmia,15000,15000
Pacemaker check,7500,7500
Atrial septostomy,80000,80000
Pulmonary valve valvuloplasty,80000,80000
Aortic valve valvuloplasty,80000,80000
"Mitral valve valvuloplasty, percutaneous balloon",80000,80000
"Coarctation of the aorta, percutaneous balloon dilatation",60000,60000
Closure of atrial septal defect,80000,80000
Closure of patent ductus arteriosus,75000,75000
Echo(Portable),5000,5000
,1500,1500
,29880,29880
General clinical officer consultation,1000,1000
Psychiatrist,500,500
Medical officer consultation,1500,1500
General medical practitioner consultation,1500,1500
e-Consult General practitioner consultation,1000,1000
e-Consult Specialist consultation,2000,2000
e-Consult Subspecialist consultation,3000,3000
e-Consult Psychiatrist consultation,4000,4000
Specialist medical consultation,5000,5000
Subspecialist medical consultation,3500,3500
Psychiatrist:,3000,3000
Psychiatrist: psychotherapy/hr,6000,6000
Psychiatrist: family therapy/hr,6000,6000
Psychiatrist: marital therapy/hr,8000,8000
Anesthesiologistís/critical care specialistís ICU admission protocol,20000,20000
Subsequent general practitioner consultation,1500,1500
Subsequent Specialist consultation,2500,2500
Subsequent Subspecialist consultation,3500,3500
Subsequent Psychiatrist consultation,4000,4000
Subsequent Psychiatrist: psychotherapy/hr,6000,6000
Subsequent Psychiatrist: family therapy/hr,6000,6000
Subsequent Psychiatrist: marital therapy/hr,8000,8000
Subsequent Antenatal care,2500,2500
Counselling,1500,1500
,6000,6000
Dental practitioner court appearance within town (per day),20000,20000
Dental practitioner court appearance outside town (per day),50000,50000
Medical practitioner court appearance within town (per day),20000,20000
Medical practitioner court appearance outside town (per day),50000,50000
Insertion of chest tube/chest aspiration,25000,25000
Pericardiocentesis,10000,10000
Chest Tube Insertion,10000,10000
Pulmonary artery catheterization,7500,7500
Chest tube insertion,25000,25000
Chest Tube under water Zeal Insertion,15000,15000
Chest tube removal,6000,6000
Bronchoscopy and removal of FB,60000,60000
Esophagoscopy biopsy/dilatation/removal of FB,40000,40000
Feeding gastrostomy/jejunostomy,40000,40000
Other rib resection,15000,15000
Pericardial catheterization,20000,20000
Repair of ruptured diaphragm,50000,50000
Insertion of MB tube,60000,60000
Mediastinoscopy,75000,75000
Thoracoscopy,60000,60000
Mini thoracotomy for open lung biopsy,60000,60000
Pacemaker implantation: single,90000,90000
Pacemaker implantation: dual,150000,150000
Excision of mediastinal tumor,90000,90000
Ligation/stripping of varicose veins,45000,45000
Myocardial biopsy,30000,30000
Thymectomy,60000,60000
Pericardial window,45000,45000
Resection of simple AV fistula,45000,45000
Rib resection for thoracic outlet syndrome,75000,75000
Pleurectomy/decortication,90000,90000
Pericardectomy,90000,90000
Vessel bypass surgery,115000,115000
Coronary angioplasty/stenting,180000,180000
Oesophagectomy,130000,130000
Splenorenal shunt,70000,70000
Portocaval shunt,70000,70000
Excision of carotid body tumour,85000,85000
Closed valvotomy,60000,60000
Mitral valvotomy/balloon,60000,60000
Open heart surgery,150000,150000
Pneumonectomy/lobectomy,110000,110000
Surgery for achalasia cardia,60000,60000
Vascular amputation,75000,75000
Aneurysm repair,110000,110000
Repair of traumatic arterial transection,75000,75000
Thoracotomy,45000,45000
Resection of complex AV fistula,75000,75000
Subfascial DVT ligation + skin graft,60000,60000
Thromboembolectomy,60000,60000
Carotid arterectomy,60000,60000
PDA ligation,75000,75000
General practitioner consultation,3000,3000
e-Consult Dental Subspecialist consultation,3000,3000
IOPA,1200,1200
Dental Specialist consultation,2500,2500
Dental Subspecialist consultation,3500,3500
Dental General practitioner subsequent consultation,1500,1500
Dental Specialist subsequent consultation,2500,2500
Dental Subspecialist subsequent consultation,3500,3500
e-Consult Dental General practitioner consultation,1000,1000
e-Consult Dental Specialist consultation,2000,2000
Polishing/Stain Removal,3000,3000
Scaling and Polishing,5000,5000
Prophylaxis,4000,4000
"Root planing, per quadrant",5000,5000
Periodontal flap surgery per quadrant,25000,25000
Bone augmentation,30000,30000
Periodontal splinting,25000,25000
Gingivoplasty per quadrant,40000,40000
Crown lengthening per tooth,10000,10000
Operculectomy,2000,2000
Guided tissue regeneration,25000,25000
Desensitization (Per visit),3000,3000
Fluoride application,3000,3000
Splinting mobile teeth,9000,9000
Fissure sealing per tooth,4000,4000
Amalgam: one surface,4000,4000
Amalgam: two surfaces,4000,4000
Amalgam: three surfaces,5000,5000
Amalgam: more than three surfaces,6000,6000
Fillings - Tooth coloured: one surface,4000,4000
Fillings - Tooth coloured: two surfaces,5000,5000
Fillings - Tooth coloured: three surfaces,5000,5000
Fillings - Tooth coloured: more than three surfaces,6000,6000
Fillings -Pins (for each pin),1000,1000
Fillings -Posts (for each post),2000,2000
Temporary crown,10000,10000
Prefabricated post & core build up,5000,5000
Cast post & core (excluding cost of gold),12000,12000
Stainless steel crown,10000,10000
Crown/bridge per unit,40000,40000
Partial veneers (excluding lab fees/metal),25000,25000
Inlays/onlays (excluding cost of gold),25000,25000
Recementation- simple crown and bridge,3000,3000
Recementation- complex crown and bridge,15000,15000
Crown/bridge removal (per unit),4000,4000
Repair of porcelain,10000,10000
Bleaching per arch (home bleach),20000,20000
Power bleaching,60000,60000
Microabrasion (per tooth),5000,5000
Composite veneers (each)-direct,7500,7500
Composite veneers (each)-indirect,15000,15000
Porcelain veneers (each),25000,25000
Masking (per tooth),6000,6000
Single osseo-integrated implant (placing),75000,75000
Second implant same jaw,30000,30000
Third implant same jaw,45000,45000
Single implant exposure,15000,15000
Second implant exposure same jaw,25000,25000
Third/other exposure same jaw,15000,15000
Grafting site,15000,15000
Pulpotomy,11000,11000
Root Canal filings,18000,18000
Root Canal Treatment - Premolars,15000,15000
Root Canal Treatment - Molars,20000,20000
Root Canal Treatment - Accessory or extra canal (each),4000,4000
"Root Canal Treatment - Retreatments, root related teeth (extra)",3000,3000
Root Canal Treatment - Access through crowns (extra),2000,2000
Root Canal Treatment - Bleaching non-vital (per tooth/per session),4000,4000
dentures LPD removal,12000,12000
Addition of tooth on denture,4000,4000
"Rebase, relines, soft liner",6000,6000
Complete upper and lower denture,30000,30000
Complete upper or lower denture,25000,25000
Acrylic partial denture 1-3 teeth,11000,11000
Acrylic partial denture 4-6 teeth,14000,14000
Acrylic partial denture 7 or more teeth,18000,18000
Cobalt chrome denture,40000,40000
Repair of cobalt chrome framework,4000,4000
Michigan/occlusal Splint,11000,11000
Mouth toileting & polishing,8000,8000
Obturator with acrylic base,30000,30000
Obturator with cobalt chrome frame,45000,45000
Facial prosthesis (facial),45000,45000
Orthodontics consultation,3000,3000
Orthodontics study models,3000,3000
Orthodontics - Diagnosis and treatment planning,3000,3000
Orthodontics - First removable appliance,45000,45000
Orthodontics - Subsequent removable appliance,15000,15000
Orthodontics - Removable retainer per arch,15000,15000
Orthodontics - Removable habit breaker,15000,15000
Orthodontics - Removable space maintainer,15000,15000
Orthodontics - Fixed habit breaker,22000,22000
Orthodontics - Fixed retainer per arch,20000,20000
Orthodontics - Fixed space maintainer per arch,25000,25000
Fixed orthodontic treatment per arch,90000,90000
Orthodontics - Sectional fixed appliance per arch,80000,80000
Children: Multiple fillings/extractions (GA),50000,50000
Adults: Multiple fillings/extractions (GA),50000,50000
Dentumm (Fracture Accessories Wire),4500,4500
Upper Removal Single tooth Dentures,6000,6000
Basal cell excision,20000,20000
Squamous cell excision,30000,30000
Cryotherapy,10000,10000
Cautery,30000,30000
KOH preparation,2000,2000
Skin biopsy,10000,10000
Chemical cautery (phenol),5000,5000
Iontophoresis,5000,5000
Botox injection,50000,50000
Intralesional injection,20000,20000
Phototherapy,10000,10000
Incision and drainage,13000,13000
Ingrown toe nail,20000,20000
Atypical mole excision,30000,30000
Culletage,10000,10000
Microdermabrasion,20000,20000
Chemical peels,5000,5000
Dermal feelers,50000,50000
Electrolysis/epilation,40000,40000
Intraoral radiograph (each) - [Dental],800,800
Orthopantomogram (OPG) - [Dental],1000,1000
Cephalometric radiograph - [Dental],2000,2000
Sialogram - [Dental],6000,6000
TMJ Tomograms (each) - [Dental],2000,2000
General practitionerís dental legal report,5000,5000
Specialistís dental legal report,7500,7500
Subspecialistís dental legal report,10000,10000
Laryngeoscopy,3000,3000
tracheostomy tube insertion,5000,5000
Removal of wax from external ears (syringing),2000,2000
Removal of FB in ear or nose under LA,5000,5000
Chemical cauterization of the nose,10000,10000
Release of tongue tie,10000,10000
Antral and nasal packing,10000,10000
Cervical lymph node biopsy under LA,10000,10000
Peritonsillar abscess I&D under LA,10000,10000
Removal of FB in ear or nose under GA,10000,10000
Preauricular sinus excision,30000,30000
"EUA and biopsy of nasopharynx, ears and nose",20000,20000
Posterior nasal packing,20000,20000
Removal of aural keratosis,20000,20000
Incision + drainage head and neck abscess (I&D),20000,20000
Bilateral antronasal washout (BAWO),20000,20000
Sleep nasoendoscopy,20000,20000
Peritonsillar abscess I&D under GA,20000,20000
Myringotomy,20000,20000
Diathermy and reduction of turbinate,20000,20000
MUA - fracture nasal bones,20000,20000
Cervical lymph node biopsy,15000,15000
Galvanocautery of nose,15000,15000
Intranasal antrostomy,40000,40000
Adult adenoidectomy,40000,40000
Myringotomy and insertion of T-tube,40000,40000
Surgical toilet and suturing of facial wounds,40000,40000
Tonsillectomy (paediatric),40000,40000
Esophagoscopy and removal of FB,40000,40000
Excision of head and neck lipoma,30000,30000
Adenoidectomy (paediatric),30000,30000
Pharyngeal abscess drainage,30000,30000
Myringotomy and insertion of grommet,30000,30000
Excision of submandibular salivary gland,60000,60000
Cordectomy,60000,60000
Bronchoscopy and removal of FB,60000,60000
Submucous resection of nasal septum,50000,50000
Post Nasal Space,1800,1800
Bat ears reduction: unilateral,50000,50000
Myringoplasty,60000,60000
Tonsillectomy (adult),50000,50000
Turbinoplasty,50000,50000
Caldwell-Luc procedure,50000,50000
Tracheostomy,50000,50000
Adenotonsillectomy (peediatric),50000,50000
Base of tongue reduction,50000,50000
Nasal polypectomy,40000,40000
Direct laryngoscopy,40000,40000
Tympanoplasty,80000,80000
Stapedectomy,80000,80000
Microlaryngeal surgery,80000,80000
Superficial parotidectomy,80000,80000
Lateral rhinotomy,80000,80000
Cortical mastoidectomy,80000,80000
Sphenopalatine artery ligation,80000,80000
External ethmoidectomy,75000,75000
External frontal mucocele excision,75000,75000
Head and neck flap reconstruction,70000,70000
Septoplasty,70000,70000
Palatoplasty,70000,70000
Meatoplasty,70000,70000
Excision of ranula cyst,70000,70000
Excision of membranous choanal atresia,70000,70000
Vocal chord lateralization,70000,70000
Bat ears reduction: bilateral,70000,70000
Cortical/simple mastoidectomy,70000,70000
Excision of thyroglossal cyst/duct,70000,70000
Adenotonsillectomy (adult),70000,70000
Laryngectomy with radical neck dissection,220000,220000
Cochlear operation,200000,200000
Excision ad reconstruction of head and neck tumours,190000,190000
Laryngectomy,150000,150000
Radical/modified neck dissection,150000,150000
Partial laryngectomy,130000,130000
Mid-facial degloving,130000,130000
Septorhinoplasty,130000,130000
Laryngotracheal reconstruction,120000,120000
Facial nerve anastomosis,120000,120000
Extended parotidectomy,120000,120000
Maxillectomy (total),120000,120000
Cricotracheal reconstruction,120000,120000
Trachial Aspirate m/c/s,4700,4700
Facial nerve decompression,120000,120000
Uvulopalatopharyngoplasty,110000,110000
Selective neck dissection,100000,100000
Middle ear tumour excision,110000,110000
Excision of bony choanal atresia,100000,100000
Rhinoplasty,100000,100000
Maxillectomy (partial),100000,100000
Total thyroidectomy,100000,100000
Maxillary artery ligation,100000,100000
Total parotidectomy,90000,90000
Radical mastoidectomy,90000,90000
Endoscopic DCR,90000,90000
Endoscopic decompression of optic nerve,90000,90000
Excision of pharyngeal diverticulum,90000,90000
Excision of cystic hygroma,90000,90000
Functional endoscopic sinus surgery (FESS),80000,80000
Hemiglossectomy,80000,80000
Vocal chord lateralization with arytenoidectomy,90000,90000
Excision of brachial cyst/sinus/fistula,80000,80000
Excision of plunging ranula cyst,80000,80000
Laryngocele excision,80000,80000
,3000,3000
Fountain Services,1,1
OGD - Diagnostic,15000,15000
OGD - Sclerotherapy,30000,30000
OGD - Diathermy (hemostatic procedure),30000,30000
OGD - Pyloric balloon dilatation,30000,30000
OGD - PEG tube insertion,30000,30000
OGD - Stricture dilatation (Savary Gilliard),30000,30000
OGD - Upper GI polypectomy,30000,30000
OGD - Stent insertion,30000,30000
OGD - Stricture dilatation (TTC),30000,30000
OGD - Pneumatic dilatation,30000,30000
OGD - Band ligation,30000,30000
Colonoscopy - Diagnostic,20000,20000
Colonoscopy - Stricture dilatation,35000,35000
Colonoscopy - Lower GI polypectomy,15000,15000
ERCP - Diagnostic,35000,35000
ERCP - Sphincterectomy,35000,35000
ERCP - Stent insertion,35000,35000
ERCP - Sphincterectomy + stone removal,35000,35000
Sigmoidoscopy,15000,15000
Rectal snip,5000,5000
Liver biopsy,20000,20000
Peritoneal biopsy,20000,20000
Banding,5000,5000
Iron profile,7250,7250
St. Lukes share of bill,47716,47716
Short infusion,3000,3000
Tissues,40,40
Hearse Charges,1500,1500
Attachment Fee,1000,1000
Adult Pampers,150,150
Neuphrestomy tube,19684,19684
Coagulative Profile,1700,1700
Gene Expert 2,8000,8000
X-ray abdomen supine,1180,1180
X- ray chest,1200,1200
Insulin Mixtard,200,200
RAPHA SERVICES,0,0
AFP,2700,2700
ultrasound,3000,3000
HCV,1500,1500
SILK NO. 1,400,400
Dressing (LA),1000,1000
Stitching (,1500,1500
Stitch removal,1000,1000
Core biopsy (LA),10000,10000
Incisional biopsy (LA),15000,15000
Incisional biopsy (LA),15000,15000
incisional biopsy [LA],15000,15000
Lymph node biopsy (LA},10000,10000
Incisional Biopsy,10000,10000
Incisional Biopsy,10000,10000
Excision of lipoma/lump (LA),10000,10000
Excision of breast lump (LA),20000,20000
Minor surgical toilet (LA),10000,10000
